0.0050 11.5445 10.0000 1.8929 1.2456 0.3384 1.7297 0.7353 1.8866 0.6028 1.8971 0.7968 1.7392 0.9521 1.8968 0.8263 nan nan nan nan 1.8900 0.3736 nan nan nan nan 1.0064 0.6898 1.3663 0.6026 1.4724 0.8598 1.2110 0.1827 0.0146 0.3491 0.5482 0.2815 0.8394 0.5134 0.3036 0.1027 4.1021 0.0000 0.2334 0.3456 0.4732 0.0034 0.8601 0.2405 0.4847 0.1798 0.3660 0.0355 0.7017 0.2361 0.5888 nan nan nan nan 0.2254 0.6272 nan nan nan nan 0.0515 0.9423 0.2591 0.5220 0.2631 0.6142 0.3243 0.5406 0.1034 0.4729 0.4294 0.3624 0.1894 0.3908 0.4509 0.2901
0.0089 11.5426 10.0000 1.8918 1.2455 0.3385 1.7285 0.7479 1.8871 0.6792 1.8967 0.7334 1.7371 0.9759 1.8988 0.7599 nan nan nan nan 1.8949 0.3672 nan nan nan nan 1.0063 0.6898 1.3948 0.6629 1.4581 0.7914 1.2105 0.1818 0.0150 0.3493 0.5501 0.2979 0.8396 0.5133 0.3031 0.1022 4.1045 0.0000 0.2365 0.3458 0.4732 0.0034 0.8640 0.2480 0.5073 0.1816 0.3737 0.0370 0.6927 0.2435 0.6048 nan nan nan nan 0.2304 0.6474 nan nan nan nan 0.0511 0.9420 0.2389 0.5176 0.2613 0.5991 0.3243 0.5392 0.1035 0.4727 0.4284 0.3721 0.1920 0.3917 0.4506 0.2894
0.0158 11.5474 10.0000 1.8932 1.2455 0.3383 1.7279 0.7501 1.8843 0.6941 1.8987 0.6962 1.7233 0.9735 1.8956 0.7009 nan nan nan nan 1.8880 0.3835 nan nan nan nan 1.0063 0.6894 1.4145 0.6787 1.4511 0.7331 1.2105 0.1814 0.0146 0.3489 0.5774 0.3092 0.8348 0.5085 0.3026 0.1017 4.0986 0.0000 0.2419 0.3456 0.4731 0.0037 0.8926 0.2464 0.5163 0.1853 0.4123 0.0314 0.7719 0.2430 0.6050 nan nan nan nan 0.2327 0.6564 nan nan nan nan 0.0513 0.9421 0.2312 0.5204 0.2526 0.5697 0.3243 0.5395 0.1025 0.4728 0.4354 0.3928 0.2011 0.3923 0.4507 0.2891
0.0281 11.5493 10.0000 1.8912 1.2456 0.3382 1.7280 0.7544 1.8756 0.6680 1.8961 0.6102 1.7325 0.9451 1.8947 0.6069 nan nan nan nan 1.8897 0.3769 nan nan nan nan 1.0060 0.6885 1.4449 0.7029 1.4313 0.6655 1.2098 0.1790 0.0136 0.3480 0.5972 0.3214 0.8140 0.4886 0.3005 0.0997 4.0964 0.0000 0.2361 0.3456 0.4731 0.0038 0.8562 0.2512 0.5437 0.1811 0.4270 0.0295 0.7239 0.2379 0.6093 nan nan nan nan 0.2288 0.6373 nan nan nan nan 0.0505 0.9423 0.2128 0.5027 0.2592 0.5574 0.3244 0.5380 0.0997 0.4728 0.4377 0.4082 0.2283 0.3896 0.4506 0.2875
0.0500 11.5398 10.0000 1.8946 1.2456 0.3387 1.7279 0.7496 1.8812 0.6464 1.8985 0.5508 1.7042 0.9715 1.8976 0.5451 nan nan nan nan 1.8953 0.3854 nan nan nan nan 1.0058 0.6879 1.4603 0.7216 1.4169 0.6231 1.2087 0.1759 0.0130 0.3473 0.6126 0.3315 0.7919 0.4670 0.2975 0.0966 4.1079 0.0000 0.2364 0.3458 0.4733 0.0036 0.8719 0.2495 0.5746 0.1820 0.4423 0.0291 0.7921 0.2379 0.6043 nan nan nan nan 0.2309 0.6405 nan nan nan nan 0.0497 0.9433 0.2078 0.5240 0.2681 0.5469 0.3246 0.5378 0.0975 0.4728 0.4427 0.4231 0.2585 0.3900 0.4499 0.2844
0.0889 11.5437 10.0000 1.8912 1.2454 0.3385 1.7258 0.7536 1.8859 0.6360 1.8955 0.5119 1.7244 0.9529 1.8964 0.4937 nan nan nan nan 1.8916 0.3745 nan nan nan nan 1.0053 0.6859 1.4711 0.7192 1.3957 0.5651 1.2074 0.1713 0.0122 0.3466 0.6299 0.3415 0.7428 0.4197 0.2947 0.0938 4.1029 0.0000 0.2352 0.3455 0.4732 0.0035 0.8576 0.2490 0.5889 0.1806 0.4486 0.0291 0.7368 0.2385 0.6147 nan nan nan nan 0.2314 0.6396 nan nan nan nan 0.0478 0.9424 0.1978 0.5011 0.2833 0.5633 0.3246 0.5327 0.0945 0.4728 0.4468 0.4366 0.3144 0.3901 0.4496 0.2819
0.1581 11.5388 10.0000 1.8914 1.2455 0.3388 1.7211 0.7644 1.8868 0.6432 1.8965 0.4920 1.7223 0.9447 1.8946 0.4472 nan nan nan nan 1.8868 0.3762 nan nan nan nan 1.0046 0.6832 1.4853 0.7454 1.3773 0.5032 1.2063 0.1674 0.0105 0.3448 0.6340 0.3395 0.6936 0.3715 0.2919 0.0910 4.1091 0.0000 0.2389 0.3457 0.4733 0.0033 0.8782 0.2499 0.6118 0.1822 0.4556 0.0258 0.7661 0.2436 0.5927 nan nan nan nan 0.2369 0.6530 nan nan nan nan 0.0450 0.9427 0.1888 0.5121 0.2961 0.5497 0.3247 0.5299 0.0892 0.4729 0.4490 0.4394 0.3620 0.3906 0.4494 0.2795
0.2812 11.5408 10.0000 1.8943 1.2455 0.3387 1.7366 0.7369 1.8852 0.6581 1.8989 0.4741 1.7475 0.9000 1.8984 0.4252 nan nan nan nan 1.8944 0.3743 nan nan nan nan 1.0042 0.6822 1.4996 0.7734 1.3611 0.4515 1.2054 0.1641 0.0097 0.3441 0.6419 0.3403 0.6480 0.3266 0.2899 0.0890 4.1065 0.0000 0.2352 0.3456 0.4733 0.0033 0.8532 0.2468 0.6254 0.1800 0.4530 0.0242 0.7179 0.2344 0.5872 nan nan nan nan 0.2252 0.6294 nan nan nan nan 0.0437 0.9432 0.1867 0.5128 0.3070 0.5583 0.3248 0.5276 0.0860 0.4728 0.4518 0.4454 0.3976 0.3875 0.4490 0.2776
0.5000 11.5428 10.0000 1.8939 1.2453 0.3385 1.7155 0.7719 1.8816 0.6806 1.8981 0.4683 1.7374 0.9334 1.8930 0.4011 nan nan nan nan 1.8865 0.3709 nan nan nan nan 1.0036 0.6803 1.5103 0.8025 1.3493 0.4144 1.2045 0.1610 0.0085 0.3429 0.6440 0.3405 0.6148 0.2935 0.2877 0.0869 4.1041 0.0000 0.2377 0.3455 0.4732 0.0028 0.8880 0.2498 0.6387 0.1817 0.4598 0.0299 0.7217 0.2380 0.5838 nan nan nan nan 0.2327 0.6483 nan nan nan nan 0.0404 0.9428 0.1847 0.5216 0.3134 0.5522 0.3247 0.5246 0.0805 0.4727 0.4540 0.4484 0.4181 0.3813 0.4487 0.2753
